{
  "type": "service_account",
  "project_id": "pixiewars",
  "private_key_id": "6867e074c15e636bf83b4e18d46ec42d1bc2aa68",
  "private_key": "-----BEGIN PRIVATE KEY-----\nMIIEvQIBADANBgkqhkiG9w0BAQEFAASCBKcwggSjAgEAAoIBAQCGo5kIh576/KoF\nigAYqzFMlBXe6ipiFCKGlS6PBxdTCsgFdjGSxRwlLlkLRKri0TBz5y2RLcskXn0A\nGN0wQFPjSC88dN33KTz7Ao47+Gi7sWIVAjbE0zMQ8K+kpgs2Yr21w1Rszsu31/6K\nCKwVUVA9vVtN/BEEZJ6rwThH/COVxqhPZMRPF/dFXtJCOUihtD/iV4YO6mSB5/m/\nxLIqHe4yfTB8KnF7R1b6ep0Jd5QlL2RmdYf/qPzUacROCeMmkvIy4m+lEQMJgaxc\nAPNeQGJJxO4FMdMNvFXt8NAPS0wE6lnE7ibSOKkP338beahAaUgBbTt422hGa/Ta\nWftaA5etAgMBAAECggEAAdFxvpi+P9trnFmJuMuPBd62EOWOnvZwpOqcz1ekK/3o\nR5KaBsZco+/lSe6qdBepFNeZWO2KYbpY68hqLD2iJF6ULLfTS4QmC6m0LAElwOsb\nTPdTsAK+HMtzQ8DuQ9S/hRXXLQT54UisakbFtB/9+md1NS9jN3D4Z49baDVycZJR\nLZA7AbjVLy+b8KELQL8XMCB0KUaArGkJ4EniH/thw5/8brkWc/dR3OO7Smuf8tQE\nfWFrgsX0VE01RiMKC1mx7jSVVcgdwaHfuOFYkSGz5Ik403uZ8qv16O1S70LLRqmZ\niJOs+rWJX1kUsgQztoInEzUcXYbEFS9zsWJVAN4+4QKBgQC+A+4hbv71FXRwV+jN\nnGu6zSBXojbI1KNC1SmgYRbtr9zAG/tF1P2eh4eb2nlyryGAd+UWHRHRHY9g5xWY\n0EbC5jZ2rO/OxnaQxmXa9saIIS0Me9A2GqE2OcK2OoJ5vuBDD3ZW0H11kHQnNKGC\nNwxfy24c4Gb/fhYzn7E7vgiO1QKBgQC1ZMz2MpW1hsFFNYcvlTz328Fd8UhOLckd\ngtQ5dCA91SO/t/hyyxcmBSVI4KBNTGjqwlUtRfaZRZhE7fNewyMHHtG1wQnoQf5H\nC5tBV30G7PiuIf1nETdNusP6//aoxsxrH5Flchs2tom0JjkhffnPOtw98O6XqFxx\ncHSRjuRBeQKBgFoh5SAo1XmN7sinen+llhhq2s+W26PR8YtvL6qqw0SF6hGadEuA\np7k+Ep5kOL2kwyB8PseJjH0EJ5HQq5bsHNSwfN84UxxjWbR8163Q5wWFrye/x1kS\nsqvVJD5qbJ+xYhGNURYHGavdlKtQNNheolkCVz4NV+4TchaUxm5PSyHtAoGAaQTW\nIYgB4xoElYQ7I1Jc/QdO+YuzGAgsExjms+jGreXTj7D8d8GbQljiUEI0rOwbJiei\n1tZVwkFnuiilqWyCwCGYuojrqntis1FF7tuvOC5Ef9SP+HcgNLF3u78r2GVYfoDF\nVh1tIg0mxpUGqJxd4Bus3XO7PzSraMX5xzgacMkCgYEAmjyc6pIR1OFfkIKM0+Ld\nmuv8jgpheGndpNVn1lu9KmzgFetVjVCKnvy6IOHCQ/5s81wDDPRm3Ys4o9jCtst8\nZDf6E+nAeXBU4XkVTDsHO1VMeroZjGv6DKSXtzOPHHpyBn0JSyTVsgTuUGjbk8zl\nA11g50GMseJ2O3Q6QOlGjUc=\n-----END PRIVATE KEY-----\n",
  "client_email": "owner-377@pixiewars.iam.gserviceaccount.com",
  "client_id": "116167229644214712969",
  "auth_uri": "https://accounts.google.com/o/oauth2/auth",
  "token_uri": "https://oauth2.googleapis.com/token",
  "auth_provider_x509_cert_url": "https://www.googleapis.com/oauth2/v1/certs",
  "client_x509_cert_url": "https://www.googleapis.com/robot/v1/metadata/x509/owner-377%40pixiewars.iam.gserviceaccount.com"
}
